%YAML 1.1
%TAG !u! tag:unity3d.com,2011:
--- !u!1045 &1
EditorBuildSettings:
  m_ObjectHideFlags: 0
  serializedVersion: 2
  m_Scenes:
  - enabled: 1
    path: Assets/Scenes/MainMenu.unity
    guid: ff3b2ebf591f1e34e991583a6ab53183
  - enabled: 1
    path: Assets/Scenes/Game.unity
    guid: 86f4eb139523666478c1772a1658dfdb
  - enabled: 1
    path: Assets/Scenes/GameOver.unity
    guid: d39e204ae6c20ec48a072836a7704b3c
  m_configObjects: {}
